\babel@toc {ngerman}{}
\contentsline {section}{\numberline {1}Einführung}{1}{section.1}%
\contentsline {subsection}{\numberline {1.1}Was ist ein ERP-System?}{1}{subsection.1.1}%
\contentsline {subsection}{\numberline {1.2}Besonderheiten internationaler Unternehmen}{1}{subsection.1.2}%
\contentsline {section}{\numberline {2}Etablierte Kriterien}{1}{section.2}%
\contentsline {subsection}{\numberline {2.1}Kriterium1}{1}{subsection.2.1}%
\contentsline {subsection}{\numberline {2.2}Kriterium2}{1}{subsection.2.2}%
\contentsline {subsection}{\numberline {2.3}bis Kriterium x}{1}{subsection.2.3}%
\contentsline {section}{\numberline {3}Methodik der Softwareauswahl}{1}{section.3}%
\contentsline {section}{\numberline {4}Fazit}{1}{section.4}%
\contentsline {subsection}{\numberline {4.1}Aktuelle Entwicklung}{1}{subsection.4.1}%
\contentsline {subsection}{\numberline {4.2}Zusammenfassung}{1}{subsection.4.2}%
\providecommand \tocbasic@end@toc@file {}\tocbasic@end@toc@file 
