\relax 
\providecommand\hyper@newdestlabel[2]{}
\providecommand*\new@tpo@label[2]{}
\@nameuse{bbl@beforestart}
\catcode `"\active 
\providecommand\HyperFirstAtBeginDocument{\AtBeginDocument}
\HyperFirstAtBeginDocument{\ifx\hyper@anchor\@undefined
\global\let\oldcontentsline\contentsline
\gdef\contentsline#1#2#3#4{\oldcontentsline{#1}{#2}{#3}}
\global\let\oldnewlabel\newlabel
\gdef\newlabel#1#2{\newlabelxx{#1}#2}
\gdef\newlabelxx#1#2#3#4#5#6{\oldnewlabel{#1}{{#2}{#3}}}
\AtEndDocument{\ifx\hyper@anchor\@undefined
\let\contentsline\oldcontentsline
\let\newlabel\oldnewlabel
\fi}
\fi}
\global\let\hyper@last\relax 
\gdef\HyperFirstAtBeginDocument#1{#1}
\providecommand\HyField@AuxAddToFields[1]{}
\providecommand\HyField@AuxAddToCoFields[2]{}
\providecommand\BKM@entry[2]{}
\babel@aux{ngerman}{}
\BKM@entry{id=1,open,dest={73656374696F6E2E31},srcline={72}}{57617320697374204C61546558756E6420776965206973742065696E65204C615465582D4461746569206175666765626175743F}
\BKM@entry{id=2,open,dest={73756273656374696F6E2E312E31},srcline={74}}{45747761732047657363686963687465205C323035206F6465722065696E207061617220476573636869636874656E}
\citation{koma16}
\BKM@entry{id=3,open,dest={73756273656374696F6E2E312E32},srcline={131}}{446572204175666261752065696E6572204C615465582D4461746569}
\@writefile{toc}{\contentsline {section}{\numberline {1}Was ist \LaTeX und wie ist eine \LaTeX -Datei aufgebaut?}{4}{section.1}\protected@file@percent }
\@writefile{toc}{\contentsline {subsection}{\numberline {1.1}Etwas Geschichte -- oder ein paar Geschichten}{4}{subsection.1.1}\protected@file@percent }
\BKM@entry{id=4,dest={73756273756273656374696F6E2E312E322E31},srcline={139}}{446F6B756D656E746B6C61737365}
\citation{partosch15}
\BKM@entry{id=5,dest={73756273756273656374696F6E2E312E322E32},srcline={150}}{50725C333434616D62656C}
\citation{partosch15}
\BKM@entry{id=6,dest={73756273756273656374696F6E2E312E322E33},srcline={166}}{44696520556D676562756E6720646F63756D656E74}
\@writefile{toc}{\contentsline {subsection}{\numberline {1.2}Der Aufbau einer \LaTeX -Datei}{5}{subsection.1.2}\protected@file@percent }
\@writefile{toc}{\contentsline {subsubsection}{\numberline {1.2.1}Dokumentklasse}{5}{subsubsection.1.2.1}\protected@file@percent }
\@writefile{toc}{\contentsline {subsubsection}{\numberline {1.2.2}Präambel}{5}{subsubsection.1.2.2}\protected@file@percent }
\@writefile{toc}{\contentsline {subsubsection}{\numberline {1.2.3}Die Umgebung \texttt  {document}}{5}{subsubsection.1.2.3}\protected@file@percent }
\BKM@entry{id=7,open,dest={73656374696F6E2E32},srcline={188}}{456C656D656E746520665C333734722064696520476C6965646572756E67}
\BKM@entry{id=8,open,dest={73756273656374696F6E2E322E31},srcline={222}}{556E74657261627363686E697474}
\BKM@entry{id=9,dest={73756273756273656374696F6E2E322E312E31},srcline={226}}{556E746572756E74657261627363686E697474}
\BKM@entry{id=10,open,dest={73756273656374696F6E2E322E32},srcline={243}}{556E746572676C6965646572756E67656E20696D2054657874}
\BKM@entry{id=11,dest={73756273756273656374696F6E2E322E322E31},srcline={245}}{4175667A5C333434686C756E67656E}
\@writefile{toc}{\contentsline {section}{\numberline {2}Elemente für die Gliederung}{6}{section.2}\protected@file@percent }
\@writefile{toc}{\contentsline {subsection}{\numberline {2.1}Unterabschnitt}{6}{subsection.2.1}\protected@file@percent }
\@writefile{toc}{\contentsline {subsubsection}{\numberline {2.1.1}Unterunterabschnitt}{6}{subsubsection.2.1.1}\protected@file@percent }
\@writefile{toc}{\contentsline {paragraph}{\nonumberline Absatz mit Überschrift}{6}{section*.5}\protected@file@percent }
\@writefile{toc}{\contentsline {subparagraph}{\nonumberline Unterabsatz}{6}{section*.6}\protected@file@percent }
\@writefile{toc}{\contentsline {subsection}{\numberline {2.2}Untergliederungen im Text}{6}{subsection.2.2}\protected@file@percent }
\@writefile{toc}{\contentsline {subsubsection}{\numberline {2.2.1}Aufzählungen}{6}{subsubsection.2.2.1}\protected@file@percent }
\BKM@entry{id=12,dest={73756273756273656374696F6E2E322E322E32},srcline={277}}{5374696368776F72746C697374656E}
\@writefile{toc}{\contentsline {subsubsection}{\numberline {2.2.2}Stichwortlisten}{7}{subsubsection.2.2.2}\protected@file@percent }
\BKM@entry{id=13,open,dest={73656374696F6E2E33},srcline={292}}{456C656D656E746520696D2054657874}
\BKM@entry{id=14,open,dest={73756273656374696F6E2E332E31},srcline={294}}{5479706F67726166697363686520456C656D656E7465}
\citation{lkurz15}
\BKM@entry{id=15,open,dest={73756273656374696F6E2E332E32},srcline={311}}{5265666572656E7A656E20756E64204C696E6B73}
\citation{partosch15}
\BKM@entry{id=16,open,dest={73756273656374696F6E2E332E33},srcline={323}}{416262696C64756E67656E}
\@writefile{toc}{\contentsline {section}{\numberline {3}Elemente im Text}{8}{section.3}\protected@file@percent }
\@writefile{toc}{\contentsline {subsection}{\numberline {3.1}Typografische Elemente}{8}{subsection.3.1}\protected@file@percent }
\@writefile{toc}{\contentsline {subsection}{\numberline {3.2}Referenzen und Links}{8}{subsection.3.2}\protected@file@percent }
\@writefile{toc}{\contentsline {subsection}{\numberline {3.3}Abbildungen}{8}{subsection.3.3}\protected@file@percent }
\@writefile{lof}{\contentsline {figure}{\numberline {1}{\ignorespaces Donald Knuth}}{8}{figure.1}\protected@file@percent }
\newlabel{fig:knuth}{{1}{8}{Donald Knuth}{figure.1}{}}
\BKM@entry{id=17,open,dest={73756273656374696F6E2E332E34},srcline={353}}{546162656C6C656E}
\citation{lkurz15}
\BKM@entry{id=18,open,dest={73756273656374696F6E2E332E35},srcline={388}}{4C697374696E6773}
\@writefile{toc}{\contentsline {subsection}{\numberline {3.4}Tabellen}{9}{subsection.3.4}\protected@file@percent }
\@writefile{lot}{\contentsline {table}{\numberline {1}{\ignorespaces Die Geschichte von \TeX \ und \LaTeX }}{9}{table.1}\protected@file@percent }
\newlabel{tbl:geschichte}{{1}{9}{Die Geschichte von \TeX \ und \LaTeX }{table.1}{}}
\@writefile{toc}{\contentsline {subsection}{\numberline {3.5}Listings}{9}{subsection.3.5}\protected@file@percent }
\@writefile{lol}{\contentsline {lstlisting}{\numberline {1}{Einbinden einer Quelldatei}}{9}{lstlisting.1}\protected@file@percent }
\newlabel{lst:datei}{{1}{9}{Listings}{lstlisting.1}{}}
\BKM@entry{id=19,open,dest={73756273656374696F6E2E332E36},srcline={407}}{4D617468656D6174697363686520466F726D656C6E}
\citation{lkurz15}
\@writefile{toc}{\contentsline {subsection}{\numberline {3.6}Mathematische Formeln}{10}{subsection.3.6}\protected@file@percent }
\BKM@entry{id=20,open,dest={73656374696F6E2E34},srcline={457}}{496E7374616C6C6174696F6E20766F6E204C61546558}
\BKM@entry{id=21,open,dest={73756273656374696F6E2E342E31},srcline={459}}{57696E646F7773}
\BKM@entry{id=22,dest={73756273756273656374696F6E2E342E312E31},srcline={461}}{496E7374616C6C6174696F6E737363687269747465}
\BKM@entry{id=23,dest={73756273756273656374696F6E2E342E312E32},srcline={479}}{4572737465205363687269747465206D697420546558776F726B73}
\BKM@entry{id=24,open,dest={73756273656374696F6E2E342E32},srcline={511}}{4D6163204F5358}
\BKM@entry{id=25,dest={73756273756273656374696F6E2E342E322E31},srcline={513}}{496E7374616C6C6174696F6E20766F6E204D6163546558}
\@writefile{toc}{\contentsline {section}{\numberline {4}Installation von \LaTeX }{11}{section.4}\protected@file@percent }
\@writefile{toc}{\contentsline {subsection}{\numberline {4.1}Windows}{11}{subsection.4.1}\protected@file@percent }
\@writefile{toc}{\contentsline {subsubsection}{\numberline {4.1.1}Installationsschritte}{11}{subsubsection.4.1.1}\protected@file@percent }
\@writefile{toc}{\contentsline {subsubsection}{\numberline {4.1.2}Erste Schritte mit \TeX works}{11}{subsubsection.4.1.2}\protected@file@percent }
\BKM@entry{id=26,dest={73756273756273656374696F6E2E342E322E32},srcline={522}}{417262656974656E206D69742054655853686F70}
\BKM@entry{id=27,open,dest={73756273656374696F6E2E342E33},srcline={527}}{4C696E7578}
\@writefile{toc}{\contentsline {subsection}{\numberline {4.2}Mac OSX}{12}{subsection.4.2}\protected@file@percent }
\@writefile{toc}{\contentsline {subsubsection}{\numberline {4.2.1}Installation von Mac\TeX }{12}{subsubsection.4.2.1}\protected@file@percent }
\@writefile{toc}{\contentsline {subsubsection}{\numberline {4.2.2}Arbeiten mit TeXShop}{12}{subsubsection.4.2.2}\protected@file@percent }
\@writefile{toc}{\contentsline {subsection}{\numberline {4.3}Linux}{12}{subsection.4.3}\protected@file@percent }
\bibcite{lkurz15}{1}
\bibcite{knuth99}{2}
\bibcite{koma16}{3}
\bibcite{lamport94}{4}
\bibcite{partosch15}{5}
\global\@namedef{scr@dte@section@lastmaxnumwidth}{10.84041pt}
\global\@namedef{scr@dte@subsection@lastmaxnumwidth}{18.37155pt}
\global\@namedef{scr@dte@subsubsection@lastmaxnumwidth}{26.88818pt}
\global\@namedef{scr@dte@table@lastmaxnumwidth}{9.85492pt}
\global\@namedef{scr@dte@figure@lastmaxnumwidth}{9.85492pt}
