\babel@toc {ngerman}{}
\contentsline {section}{\numberline {1}Was ist \LaTeX und wie ist eine \LaTeX -Datei aufgebaut?}{4}{section.1}%
\contentsline {subsection}{\numberline {1.1}Etwas Geschichte -- oder ein paar Geschichten}{4}{subsection.1.1}%
\contentsline {subsection}{\numberline {1.2}Der Aufbau einer \LaTeX -Datei}{5}{subsection.1.2}%
\contentsline {subsubsection}{\numberline {1.2.1}Dokumentklasse}{5}{subsubsection.1.2.1}%
\contentsline {subsubsection}{\numberline {1.2.2}Präambel}{5}{subsubsection.1.2.2}%
\contentsline {subsubsection}{\numberline {1.2.3}Die Umgebung \texttt {document}}{5}{subsubsection.1.2.3}%
\contentsline {section}{\numberline {2}Elemente für die Gliederung}{6}{section.2}%
\contentsline {subsection}{\numberline {2.1}Unterabschnitt}{6}{subsection.2.1}%
\contentsline {subsubsection}{\numberline {2.1.1}Unterunterabschnitt}{6}{subsubsection.2.1.1}%
\contentsline {paragraph}{\nonumberline Absatz mit Überschrift}{6}{section*.5}%
\contentsline {subparagraph}{\nonumberline Unterabsatz}{6}{section*.6}%
\contentsline {subsection}{\numberline {2.2}Untergliederungen im Text}{6}{subsection.2.2}%
\contentsline {subsubsection}{\numberline {2.2.1}Aufzählungen}{6}{subsubsection.2.2.1}%
\contentsline {subsubsection}{\numberline {2.2.2}Stichwortlisten}{7}{subsubsection.2.2.2}%
\contentsline {section}{\numberline {3}Elemente im Text}{8}{section.3}%
\contentsline {subsection}{\numberline {3.1}Typografische Elemente}{8}{subsection.3.1}%
\contentsline {subsection}{\numberline {3.2}Referenzen und Links}{8}{subsection.3.2}%
\contentsline {subsection}{\numberline {3.3}Abbildungen}{8}{subsection.3.3}%
\contentsline {subsection}{\numberline {3.4}Tabellen}{9}{subsection.3.4}%
\contentsline {subsection}{\numberline {3.5}Listings}{9}{subsection.3.5}%
\contentsline {subsection}{\numberline {3.6}Mathematische Formeln}{10}{subsection.3.6}%
\contentsline {section}{\numberline {4}Installation von \LaTeX }{11}{section.4}%
\contentsline {subsection}{\numberline {4.1}Windows}{11}{subsection.4.1}%
\contentsline {subsubsection}{\numberline {4.1.1}Installationsschritte}{11}{subsubsection.4.1.1}%
\contentsline {subsubsection}{\numberline {4.1.2}Erste Schritte mit \TeX works}{11}{subsubsection.4.1.2}%
\contentsline {subsection}{\numberline {4.2}Mac OSX}{12}{subsection.4.2}%
\contentsline {subsubsection}{\numberline {4.2.1}Installation von Mac\TeX }{12}{subsubsection.4.2.1}%
\contentsline {subsubsection}{\numberline {4.2.2}Arbeiten mit TeXShop}{12}{subsubsection.4.2.2}%
\contentsline {subsection}{\numberline {4.3}Linux}{12}{subsection.4.3}%
